<?xml version="1.0" encoding="utf-8"?>
<!-- Generator: Adobe Illustrator 16.0.0, SVG Export Plug-In . SVG Version: 6.00 Build 0)  -->
<!DOCTYPE svg PUBLIC "-//W3C//DTD SVG 1.1//EN" "http://www.w3.org/Graphics/SVG/1.1/DTD/svg11.dtd" [
	<!ENTITY ns_flows "http://ns.adobe.com/Flows/1.0/">
	<!ENTITY ns_extend "http://ns.adobe.com/Extensibility/1.0/">
	<!ENTITY ns_ai "http://ns.adobe.com/AdobeIllustrator/10.0/">
	<!ENTITY ns_graphs "http://ns.adobe.com/Graphs/1.0/">
	<!ENTITY ns_vars "http://ns.adobe.com/Variables/1.0/">
	<!ENTITY ns_imrep "http://ns.adobe.com/ImageReplacement/1.0/">
	<!ENTITY ns_sfw "http://ns.adobe.com/SaveForWeb/1.0/">
	<!ENTITY ns_custom "http://ns.adobe.com/GenericCustomNamespace/1.0/">
	<!ENTITY ns_adobe_xpath "http://ns.adobe.com/XPath/1.0/">
]>
<svg version="1.1" id="Layer_1" xmlns:x="&ns_extend;" xmlns:i="&ns_ai;" xmlns:graph="&ns_graphs;"
	 xmlns="http://www.w3.org/2000/svg" xmlns:xlink="http://www.w3.org/1999/xlink" xmlns:a="http://ns.adobe.com/AdobeSVGViewerExtensions/3.0/"
	 x="0px" y="0px" width="300px" height="300px" viewBox="0 0 300 300" enable-background="new 0 0 300 300" xml:space="preserve">
<metadata><?xpacket begin="﻿" id="W5M0MpCehiHzreSzNTczkc9d"?>
<x:xmpmeta xmlns:x="adobe:ns:meta/" x:xmptk="Adobe XMP Core 5.3-c011 66.145661, 2012/02/06-14:56:27        ">
   <rdf:RDF xmlns:rdf="http://www.w3.org/1999/02/22-rdf-syntax-ns#">
      <rdf:Description rdf:about=""
            xmlns:dc="http://purl.org/dc/elements/1.1/">
         <dc:format>image/svg+xml</dc:format>
         <dc:title>
            <rdf:Alt>
               <rdf:li xml:lang="x-default">Web</rdf:li>
            </rdf:Alt>
         </dc:title>
      </rdf:Description>
      <rdf:Description rdf:about=""
            xmlns:xmp="http://ns.adobe.com/xap/1.0/"
            xmlns:xmpGImg="http://ns.adobe.com/xap/1.0/g/img/">
         <xmp:CreatorTool>Adobe Illustrator CS6 (Windows)</xmp:CreatorTool>
         <xmp:CreateDate>2018-03-26T08:20:28+02:00</xmp:CreateDate>
         <xmp:ModifyDate>2018-03-26T08:20:28+02:00</xmp:ModifyDate>
         <xmp:MetadataDate>2018-03-26T08:20:28+02:00</xmp:MetadataDate>
         <xmp:Thumbnails>
            <rdf:Alt>
               <rdf:li rdf:parseType="Resource">
                  <xmpGImg:width>256</xmpGImg:width>
                  <xmpGImg:height>256</xmpGImg:height>
                  <xmpGImg:format>JPEG</xmpGImg:format>
                  <xmpGImg:image>/9j/4AAQSkZJRgABAgEASABIAAD/7QAsUGhvdG9zaG9wIDMuMAA4QklNA+0AAAAAABAASAAAAAEA&#xA;AQBIAAAAAQAB/+4ADkFkb2JlAGTAAAAAAf/bAIQABgQEBAUEBgUFBgkGBQYJCwgGBggLDAoKCwoK&#xA;DBAMDAwMDAwQDA4PEA8ODBMTFBQTExwbGxscHx8fHx8fHx8fHwEHBwcNDA0YEBAYGhURFRofHx8f&#xA;Hx8fHx8fHx8fHx8fHx8fHx8fHx8fHx8fHx8fHx8fHx8fHx8fHx8fHx8fHx8f/8AAEQgBAAEAAwER&#xA;AAIRAQMRAf/EAaIAAAAHAQEBAQEAAAAAAAAAAAQFAwIGAQAHCAkKCwEAAgIDAQEBAQEAAAAAAAAA&#xA;AQACAwQFBgcICQoLEAACAQMDAgQCBgcDBAIGAnMBAgMRBAAFIRIxQVEGE2EicYEUMpGhBxWxQiPB&#xA;UtHhMxZi8CRygvElQzRTkqKyY3PCNUQnk6OzNhdUZHTD0uIIJoMJChgZhJRFRqS0VtNVKBry4/PE&#xA;1OT0ZXWFlaW1xdXl9WZ2hpamtsbW5vY3R1dnd4eXp7fH1+f3OEhYaHiImKi4yNjo+Ck5SVlpeYmZ&#xA;qbnJ2en5KjpKWmp6ipqqusra6voRAAICAQIDBQUEBQYECAMDbQEAAhEDBCESMUEFURNhIgZxgZEy&#xA;obHwFMHR4SNCFVJicvEzJDRDghaSUyWiY7LCB3PSNeJEgxdUkwgJChgZJjZFGidkdFU38qOzwygp&#xA;0+PzhJSktMTU5PRldYWVpbXF1eX1RlZmdoaWprbG1ub2R1dnd4eXp7fH1+f3OEhYaHiImKi4yNjo&#xA;+DlJWWl5iZmpucnZ6fkqOkpaanqKmqq6ytrq+v/aAAwDAQACEQMRAD8A75+Wf5meXPzC8uR6zo0n&#xA;F1ol/YOR61tNSpRwOoP7LdGH0gKstxV2KuxV2KuxV2KvlH/nJD/nG/0PrXnXyVa/ufim1nRoV+x3&#xA;a4t1H7Pd0HTqNqgKpF/zjn/zkZJ5Zkt/KPm64L+XHIj0/UJCS1kxOyOe8B/4T/V6KvsmOSOWNZI2&#xA;DxuAyOpBUqRUEEdQcVXYq7FXYq7FXYqkPnfyR5e86eXrjQdetxPZziqOKCSGQA8ZYmoeLrXY/Qag&#xA;kYq+E/PvkLzx+TPni3mhuJIjFIZ9D1yAcUmReu24DAHjJG1evdSCVX1v+Rn556R+ZGkfV7jhZ+ab&#xA;NAdQ08GiyKNvXgruYyeo6odjtQlV6nirsVdirsVdirsVeGf85Df84823na2l8x+XIkg82wJWWIUR&#xA;L9EGyOdgJgBRHPX7LbUKqvnn8lvzp8wflZ5gl03UoppfL8sxj1bSZAVlglU8GliV6cJUpRlNOVKH&#xA;ehCr7q0LXdI17SLXWNHukvNNvEElvcRmqsp/EEHYg7g7HfFUfirsVdirsVdir879K1X8w/yT/MN1&#xA;ZDaanaEJd2jkm2vLYmvanON6VVhuD4EYq+4/yz/Mzy5+YXlyPWdGk4utEv7ByPWtpqVKOB1B/Zbo&#xA;w+kBVluKuxV2KuxV2KuxV8o/85If843+h9a86+SrX9z8U2s6NCv2O7XFuo/Z7ug6dRtUBVIv+cc/&#xA;+cjJPLMlv5R83XBfy45Een6hISWsmJ2Rz3gP/Cf6vRV9kxyRyxrJGweNwGR1IKlSKggjqDiq7FXY&#xA;q7FXYq7FUh87+SPL3nTy9caDr1uJ7OcVRxQSQyAHjLE1Dxda7H6DUEjFXwn598heePyZ88W80NxJ&#xA;EYpDPoeuQDikyL123AYA8ZI2r17qQSq+t/yM/PPSPzI0j6vccLPzTZoDqGng0WRRt68FdzGT1HVD&#xA;sdqEqvU8VdirsVdirsVdirwz/nIb/nHm287W0vmPy5EkHm2BKyxCiJfog2RzsBMAKI56/ZbahVV8&#xA;8/kt+dPmD8rPMEum6lFNL5flmMeraTICssEqng0sSvThKlKMppypQ70IVfdWha7pGvaRa6xo90l5&#xA;pt4gkt7iM1VlP4gg7EHcHY74qj8VdirsVdirAfzg/J/QPzJ0A2d4Ba6vahm0vVFWrwuf2W/mib9p&#xA;fpG+Kvi3StV/MP8AJP8AMN1ZDaanaEJd2jkm2vLYmvanON6VVhuD4EYq+4/yz/Mzy5+YXlyPWdGk&#xA;4utEv7ByPWtpqVKOB1B/Zbow+kBVluKuxV2KuxV2KuxV8o/85If843+h9a86+SrX9z8U2s6NCv2O&#xA;7XFuo/Z7ug6dRtUBVIv+cc/+cjJPLMlv5R83XBfy45Een6hISWsmJ2Rz3gP/AAn+r0VfZMckcsay&#xA;RsHjcBkdSCpUioII6g4quxV2KuxV2KuxVIfO/kjy9508vXGg69bieznFUcUEkMgB4yxNQ8XWux+g&#xA;1BIxV8J+ffIXnj8mfPFvNDcSRGKQz6HrkA4pMi9dtwGAPGSNq9e6kEqvrf8AIz889I/MjSPq9xws&#xA;/NNmgOoaeDRZFG3rwV3MZPUdUOx2oSq9TxV2KuxV2KuxV2KvDP8AnIb/AJx5tvO1tL5j8uRJB5tg&#xA;SssQoiX6INkc7ATACiOev2W2oVVfPP5LfnT5g/KzzBLpupRTS+X5ZjHq2kyArLBKp4NLEr04SpSj&#xA;KacqUO9CFX3VoWu6Rr2kWusaPdJeabeIJLe4jNVZT+IIOxB3B2O+Ko/FXYq7FXYqwH84Pyf0D8yd&#xA;ANneAWur2oZtL1RVq8Ln9lv5om/aX6Rvir4t0rVfzD/JP8w3VkNpqdoQl3aOSba8tia9qc43pVWG&#xA;4PgRir7j/LP8zPLn5heXI9Z0aTi60S/sHI9a2mpUo4HUH9lujD6QFWW4q7FXYq7FXYq7FXyj/wA5&#xA;If8AON/ofWvOvkq1/c/FNrOjQr9ju1xbqP2e7oOnUbVAVSL/AJxz/wCcjJPLMlv5R83XBfy45Een&#xA;6hISWsmJ2Rz3gP8Awn+r0VfZMckcsayRsHjcBkdSCpUioII6g4quxV2KuxV2KuxVIfO/kjy9508v&#xA;XGg69bieznFUcUEkMgB4yxNQ8XWux+g1BIxV8J+ffIXnj8mfPFvNDcSRGKQz6HrkA4pMi9dtwGAP&#xA;GSNq9e6kEqvrf8jPzz0j8yNI+r3HCz802aA6hp4NFkUbevBXcxk9R1Q7HahKr1PFXYq7FXYq7FXY&#xA;q8M/5yG/5x5tvO1tL5j8uRJB5tgSssQoiX6INkc7ATACiOev2W2oVVfPP5LfnT5g/KzzBLpupRTS&#xA;+X5ZjHq2kyArLBKp4NLEr04SpSjKacqUO9CFX3VoWu6Rr2kWusaPdJeabeIJLe4jNVZT+IIOxB3B&#xA;2O+Ko/FXYq7FXYqwH84Pyf0D8ydANneAWur2oZtL1RVq8Ln9lv5om/aX6Rvir4t0rVfzD/JP8w3V&#xA;kNpqdoQl3aOSba8tia9qc43pVWG4PgRir7j/ACz/ADM8ufmF5cj1nRpOLrRL+wcj1raalSjgdQf2&#xA;W6MPpAVZbirsVdirsVdirsVfKP8Azkh/zjf6H1rzr5Ktf3PxTazo0K/Y7tcW6j9nu6Dp1G1QFUi/&#xA;5xz/AOcjJPLMlv5R83XBfy45Een6hISWsmJ2Rz3gP/Cf6vRV9kxyRyxrJGweNwGR1IKlSKggjqDi&#xA;q7FXYq7FXYq7FUh87+SPL3nTy9caDr1uJ7OcVRxQSQyAHjLE1Dxda7H6DUEjFXwn598heePyZ88W&#xA;80NxJEYpDPoeuQDikyL123AYA8ZI2r17qQSq+t/yM/PPSPzI0j6vccLPzTZoDqGng0WRRt68FdzG&#xA;T1HVDsdqEqvU8VdirsVdirsVdirwz/nIb/nHm287W0vmPy5EkHm2BKyxCiJfog2RzsBMAKI56/Zb&#xA;ahVV88/kt+dPmD8rPMEum6lFNL5flmMeraTICssEqng0sSvThKlKMppypQ70IVfdWha7pGvaRa6x&#xA;o90l5pt4gkt7iM1VlP4gg7EHcHY74qj8VdirsVdirAfzg/J/QPzJ0A2d4Ba6vahm0vVFWrwuf2W/&#xA;mib9pfpG+Kvi3StV/MP8k/zDdWQ2mp2hCXdo5Jtry2Jr2pzjelVYbg+BGKvuP8s/zM8ufmF5cj1n&#xA;RpOLrRL+wcj1raalSjgdQf2W6MPpAVZbirsVdirsVdirsVfKP/OSH/ON/ofWvOvkq1/c/FNrOjQr&#xA;9ju1xbqP2e7oOnUbVAVSL/nHP/nIyTyzJb+UfN1wX8uORHp+oSElrJidkc94D/wn+r0VfZMckcsa&#xA;yRsHjcBkdSCpUioII6g4quxV2KuxV2KuxVIfO/kjy9508vXGg69bieznFUcUEkMgB4yxNQ8XWux+&#xA;g1BIxV8J+ffIXnj8mfPFvNDcSRGKQz6HrkA4pMi9dtwGAPGSNq9e6kEqvrf8jPzz0j8yNI+r3HCz&#xA;802aA6hp4NFkUbevBXcxk9R1Q7HahKr1PFXYq7FXYq7FXYq8M/5yG/5x5tvO1tL5j8uRJB5tgSss&#xA;QoiX6INkc7ATACiOev2W2oVVfPP5LfnT5g/KzzBLpupRTS+X5ZjHq2kyArLBKp4NLEr04SpSjKac&#xA;qUO9CFX3VoWu6Rr2kWusaPdJeabeIJLe4jNVZT+IIOxB3B2O+Ko/FXYq7FXYqwH84Pyf0D8ydANn&#xA;eAWur2oZtL1RVq8Ln9lv5om/aX6Rvir4t0rVfzD/ACT/ADDdWQ2mp2hCXdo5Jtry2Jr2pzjelVYb&#xA;g+BGKvuP8s/zM8ufmF5cj1nRpOLrRL+wcj1raalSjgdQf2W6MPpAVZbirsVdirsVdirsVfKP/OSH&#xA;/ON/ofWvOvkq1/c/FNrOjQr9ju1xbqP2e7oOnUbVAVSL/nHP/nIyTyzJb+UfN1wX8uORHp+oSElr&#xA;Jidkc94D/wAJ/q9FX2THJHLGskbB43AZHUgqVIqCCOoOKrsVdirsVdirsVSHzv5I8vedPL1xoOvW&#xA;4ns5xVHFBJDIAeMsTUPF1rsfoNQSMVfCfn3yF54/JnzxbzQ3EkRikM+h65AOKTIvXbcBgDxkjavX&#xA;upBKr63/ACM/PPSPzI0j6vccLPzTZoDqGng0WRRt68FdzGT1HVDsdqEqvU8VdirsVdirsVdirwz/&#xA;AJyG/wCcebbztbS+Y/LkSQebYErLEKIl+iDZHOwEwAojnr9ltqFVXzz+S350+YPys8wS6bqUU0vl&#xA;+WYx6tpMgKywSqeDSxK9OEqUoymnKlDvQhV984q7FXYq7FXYqwH84Pyf0D8ydANneAWur2oZtL1R&#xA;Vq8Ln9lv5om/aX6Rvir4t0rVfzD/ACT/ADDdWQ2mp2hCXdo5Jtry2Jr2pzjelVYbg+BGKvuP8s/z&#xA;M8ufmF5cj1nRpOLrRL+wcj1raalSjgdQf2W6MPpAVZbirsVdirsVdirsVfKP/OSH/ON/ofWvOvkq&#xA;1/c/FNrOjQr9ju1xbqP2e7oOnUbVAVSL/nHP/nIyTyzJb+UfN1wX8uORHp+oSElrJidkc94D/wAJ&#xA;/q9FX2THJHLGskbB43AZHUgqVIqCCOoOKrsVdirsVdirsVSHzv5I8vedPL1xoOvW4ns5xVHFBJDI&#xA;AeMsTUPF1rsfoNQSMVfCfn3yF54/JnzxbzQ3EkRikM+h65AOKTIvXbcBgDxkjavXupBKr63/ACM/&#xA;PPSPzI0j6vccLPzTZoDqGng0WRRt68FdzGT1HVDsdqEqvU8VdirsVdirsVdirwz/AJyG/wCcebbz&#xA;tbS+Y/LkSQebYErLEKIl+iDZHOwEwAojnr9ltqFVXueKuxV2KuxV2KuxVgP5wfk/oH5k6AbO8Atd&#xA;XtQzaXqirV4XP7LfzRN+0v0jfFXxbpWq/mH+Sf5hurIbTU7QhLu0ck215bE17U5xvSqsNwfAjFX3&#xA;H+Wf5meXPzC8uR6zo0nF1ol/YOR61tNSpRwOoP7LdGH0gKstxV2KuxV2KuxV2KvlH/nJD/nG/wBD&#xA;61518lWv7n4ptZ0aFfsd2uLdR+z3dB06jaoCqRf845/85GSeWZLfyj5uuC/lxyI9P1CQktZMTsjn&#xA;vAf+E/1eir7JjkjljWSNg8bgMjqQVKkVBBHUHFV2KuxV2KuxV2KpD538keXvOnl640HXrcT2c4qj&#xA;igkhkAPGWJqHi612P0GoJGKvhPz75C88fkz54t5obiSIxSGfQ9cgHFJkXrtuAwB4yRtXr3UglV9b&#xA;/kZ+eekfmRpH1e44WfmmzQHUNPBosijb14K7mMnqOqHY7UJVep4q7FXYq7FXYq7FXzz/AM45/wDO&#xA;RkfmaO38o+brgJ5jQCPTtRkIC3qgbI57Tj/h/wDW6qvobFXYq7FXYq7FXYqwH84Pyf0D8ydANneA&#xA;Wur2oZtL1RVq8Ln9lv5om/aX6Rvir4t0rVfzD/JP8w3VkNpqdoQl3aOSba8tia9qc43pVWG4PgRi&#xA;r7j/ACz/ADM8ufmF5cj1nRpOLrRL+wcj1raalSjgdQf2W6MPpAVZbirsVdirsVdirsVfKP8Azkh/&#xA;zjf6H1rzr5Ktf3PxTazo0K/Y7tcW6j9nu6Dp1G1QFUi/5xz/AOcjJPLMlv5R83XBfy45Een6hISW&#xA;smJ2Rz3gP/Cf6vRV9kxyRyxrJGweNwGR1IKlSKggjqDiq7FXYq7FXYq7FUh87+SPL3nTy9caDr1u&#xA;J7OcVRxQSQyAHjLE1Dxda7H6DUEjFXwn598heePyZ88W80NxJEYpDPoeuQDikyL123AYA8ZI2r17&#xA;qQSq+t/yM/PPSPzI0j6vccLPzTZoDqGng0WRRt68FdzGT1HVDsdqEqvU8VdirsVdirsVfDf5/fkD&#xA;qH5fagfMPl4SzeVJpQ0cikmWwlJ+GORuvCv93J/sW3oWVevf845/85GR+Zo7fyj5uuAnmNAI9O1G&#xA;QgLeqBsjntOP+H/1uqr6GxV2KuxV2KuxV2KsB/OD8n9A/MnQDZ3gFrq9qGbS9UVavC5/Zb+aJv2l&#xA;+kb4q+LdK1X8w/yT/MN1ZDaanaEJd2jkm2vLYmvanON6VVhuD4EYq+4/yz/Mzy5+YXlyPWdGk4ut&#xA;Ev7ByPWtpqVKOB1B/Zbow+kBVluKuxV2KuxV2KuxV8o/85If843+h9a86+SrX9z8U2s6NCv2O7XF&#xA;uo/Z7ug6dRtUBVIv+cc/+cjJPLMlv5R83XBfy45Een6hISWsmJ2Rz3gP/Cf6vRV9kxyRyxrJGweN&#xA;wGR1IKlSKggjqDiq7FXYq7FXYq7FUh87+SPL3nTy9caDr1uJ7OcVRxQSQyAHjLE1Dxda7H6DUEjF&#xA;Xwn598heePyZ88W80NxJEYpDPoeuQDikyL123AYA8ZI2r17qQSq+t/yM/PPSPzI0j6vccLPzTZoD&#xA;qGng0WRRt68FdzGT1HVDsdqEqvU8VdirsVdiqhfWNnf2c9jfQJc2dyjRXFvKodHRxRlZTsQRir4i&#xA;/P78gdQ/L7UD5h8vCWbypNKGjkUky2EpPwxyN14V/u5P9i29Cyr17/nHP/nIyPzNHb+UfN1wE8xo&#xA;BHp2oyEBb1QNkc9px/w/+t1VfQ2KuxV2KuxV2KuxVgP5wfk/oH5k6AbO8AtdXtQzaXqirV4XP7Lf&#xA;zRN+0v0jfFXxbpWq/mH+Sf5hurIbTU7QhLu0ck215bE17U5xvSqsNwfAjFX3H+Wf5meXPzC8uR6z&#xA;o0nF1ol/YOR61tNSpRwOoP7LdGH0gKstxV2KuxV2KuxV2KvlH/nJD/nG/wBD61518lWv7n4ptZ0a&#xA;Ffsd2uLdR+z3dB06jaoCqRf845/85GSeWZLfyj5uuC/lxyI9P1CQktZMTsjnvAf+E/1eir7Jjkjl&#xA;jWSNg8bgMjqQVKkVBBHUHFV2KuxV2KuxV2KpD538keXvOnl640HXrcT2c4qjigkhkAPGWJqHi612&#xA;P0GoJGKvhPz75C88fkz54t5obiSIxSGfQ9cgHFJkXrtuAwB4yRtXr3UglV9b/kZ+eekfmRpH1e44&#xA;WfmmzQHUNPBosijb14K7mMnqOqHY7UJVep4q7FXYq7FVC+sbO/s57G+gS5s7lGiuLeVQ6OjijKyn&#xA;YgjFXxF+f35A6h+X2oHzD5eEs3lSaUNHIpJlsJSfhjkbrwr/AHcn+xbehZV69/zjn/zkZH5mjt/K&#xA;Pm64CeY0Aj07UZCAt6oGyOe04/4f/W6qvobFXYq7FXYq7FXYqwH84Pyf0D8ydANneAWur2oZtL1R&#xA;Vq8Ln9lv5om/aX6Rvir4t0rVfzD/ACT/ADDdWQ2mp2hCXdo5Jtry2Jr2pzjelVYbg+BGKvuP8s/z&#xA;M8ufmF5cj1nRpOLrRL+wcj1raalSjgdQf2W6MPpAVZbirsVdirsVdirsVfKP/OSH/ON/ofWvOvkq&#xA;1/c/FNrOjQr9ju1xbqP2e7oOnUbVAVSL/nHP/nIyTyzJb+UfN1wX8uORHp+oSElrJidkc94D/wAJ&#xA;/q9FX2THJHLGskbB43AZHUgqVIqCCOoOKrsVdirsVdirsVSHzv5I8vedPL1xoOvW4ns5xVHFBJDI&#xA;AeMsTUPF1rsfoNQSMVfCfn3yF54/JnzxbzQ3EkRikM+h65AOKTIvXbcBgDxkjavXupBKr63/ACM/&#xA;PPSPzI0j6vccLPzTZoDqGng0WRRt68FdzGT1HVDsdqEqvU8VdirsVdiqhfWNnf2c9jfQJc2dyjRX&#xA;FvKodHRxRlZTsQRir4i/P78gdQ/L7UD5h8vCWbypNKGjkUky2EpPwxyN14V/u5P9i29Cyr17/nHP&#xA;/nIyPzNHb+UfN1wE8xoBHp2oyEBb1QNkc9px/wAP/rdVX0NirsVdirsVdirsVYD+cH5P6B+ZOgGz&#xA;vALXV7UM2l6oq1eFz+y380TftL9I3xV8W6Vqv5h/kn+YbqyG01O0IS7tHJNteWxNe1Ocb0qrDcHw&#xA;IxV9x/ln+Znlz8wvLkes6NJxdaJf2DketbTUqUcDqD+y3Rh9ICrLcVdirsVdirsVdir5R/5yQ/5x&#xA;v9D61518lWv7n4ptZ0aFfsd2uLdR+z3dB06jaoCqRf8AOOf/ADkZJ5Zkt/KPm64L+XHIj0/UJCS1&#xA;kxOyOe8B/wCE/wBXoq+yY5I5Y1kjYPG4DI6kFSpFQQR1BxVdirsVdirsVdiqQ+d/JHl7zp5euNB1&#xA;63E9nOKo4oJIZADxliah4utdj9BqCRir4T8++QvPH5M+eLeaG4kiMUhn0PXIBxSZF67bgMAeMkbV&#xA;691IJVfW/wCRn556R+ZGkfV7jhZ+abNAdQ08GiyKNvXgruYyeo6odjtQlV6nirsVdirsVUL6xs7+&#xA;znsb6BLmzuUaK4t5VDo6OKMrKdiCMVfEX5/fkDqH5fagfMPl4SzeVJpQ0cikmWwlJ+GORuvCv93J&#xA;/sW3oWVevf8AOOf/ADkZH5mjt/KPm64CeY0Aj07UZCAt6oGyOe04/wCH/wBbqq+hsVdirsVdirsV&#xA;dirAfzg/J/QPzJ0A2d4Ba6vahm0vVFWrwuf2W/mib9pfpG+Kvi3StV/MP8k/zDdWQ2mp2hCXdo5J&#xA;try2Jr2pzjelVYbg+BGKvuP8s/zM8ufmF5cj1nRpOLrRL+wcj1raalSjgdQf2W6MPpAVZbirsVdi&#xA;rsVdirsVfKP/ADkh/wA43+h9a86+SrX9z8U2s6NCv2O7XFuo/Z7ug6dRtUBVIv8AnHP/AJyMk8sy&#xA;W/lHzdcF/LjkR6fqEhJayYnZHPeA/wDCf6vRV9kxyRyxrJGweNwGR1IKlSKggjqDiq7FXYq7FXYq&#xA;7FUh87+SPL3nTy9caDr1uJ7OcVRxQSQyAHjLE1Dxda7H6DUEjFXwn598heePyZ88W80NxJEYpDPo&#xA;euQDikyL123AYA8ZI2r17qQSq+t/yM/PPSPzI0j6vccLPzTZoDqGng0WRRt68FdzGT1HVDsdqEqv&#xA;U8VdirsVdiqhfWNnf2c9jfQJc2dyjRXFvKodHRxRlZTsQRir4i/P78gdQ/L7UD5h8vCWbypNKGjk&#xA;Uky2EpPwxyN14V/u5P8AYtvQsq9e/wCcc/8AnIyPzNHb+UfN1wE8xoBHp2oyEBb1QNkc9px/w/8A&#xA;rdVX0NirsVdirsVdirsVYD+cH5P6B+ZOgGzvALXV7UM2l6oq1eFz+y380TftL9I3xV8W6Vqv5h/k&#xA;n+YbqyG01O0IS7tHJNteWxNe1Ocb0qrDcHwIxV9x/ln+Znlz8wvLkes6NJxdaJf2DketbTUqUcDq&#xA;D+y3Rh9ICrLcVdirsVdirsVdir5R/wCckP8AnG/0PrXnXyVa/ufim1nRoV+x3a4t1H7Pd0HTqNqg&#xA;KpF/zjn/AM5GSeWZLfyj5uuC/lxyI9P1CQktZMTsjnvAf+E/1eir7JjkjljWSNg8bgMjqQVKkVBB&#xA;HUHFV2KuxV2KuxV2KpD538keXvOnl640HXrcT2c4qjigkhkAPGWJqHi612P0GoJGKvhPz75C88fk&#xA;z54t5obiSIxSGfQ9cgHFJkXrtuAwB4yRtXr3UglV+hWKuxV2KuxV2KqF9Y2d/Zz2N9AlzZ3KNFcW&#xA;8qh0dHFGVlOxBGKviL8/vyB1D8vtQPmHy8JZvKk0oaORSTLYSk/DHI3XhX+7k/2Lb0LKvXv+cc/+&#xA;cjI/M0dv5R83XATzGgEenajIQFvVA2Rz2nH/AA/+t1VfQ2KuxV2KuxV2KuxVgP5wfk/oH5k6AbO8&#xA;AtdXtQzaXqirV4XP7LfzRN+0v0jfFXxbpWq/mH+Sf5hurIbTU7QhLu0ck215bE17U5xvSqsNwfAj&#xA;FX3H+Wf5meXPzC8uR6zo0nF1ol/YOR61tNSpRwOoP7LdGH0gKstxV2KuxV2KuxV2KvlH/nJD/nG/&#xA;0PrXnXyVa/ufim1nRoV+x3a4t1H7Pd0HTqNqgKpF/wA45/8AORknlmS38o+brgv5cciPT9QkJLWT&#xA;E7I57wH/AIT/AFeir7JjkjljWSNg8bgMjqQVKkVBBHUHFV2KuxV2KuxV2KpD538keXvOnl640HXr&#xA;cT2c4qjigkhkAPGWJqHi612P0GoJGKo/Qtd0jXtItdY0e6S8028QSW9xGaqyn8QQdiDuDsd8VR+K&#xA;uxV2KuxV2KqF9Y2d/Zz2N9AlzZ3KNFcW8qh0dHFGVlOxBGKviL8/vyB1D8vtQPmHy8JZvKk0oaOR&#xA;STLYSk/DHI3XhX+7k/2Lb0LKvXv+cc/+cjI/M0dv5R83XATzGgEenajIQFvVA2Rz2nH/AA/+t1Vf&#xA;Q2KuxV2KuxV2KuxVgP5wfk/oH5k6AbO8AtdXtQzaXqirV4XP7LfzRN+0v0jfFXxbpWq/mH+Sf5hu&#xA;rIbTU7QhLu0ck215bE17U5xvSqsNwfAjFX3H+Wf5meXPzC8uR6zo0nF1ol/YOR61tNSpRwOoP7Ld&#xA;GH0gKstxV2KuxV2KuxV2KvlH/nJD/nG/0PrXnXyVa/ufim1nRoV+x3a4t1H7Pd0HTqNqgKpF/wA4&#xA;5/8AORknlmS38o+brgv5cciPT9QkJLWTE7I57wH/AIT/AFeir7JjkjljWSNg8bgMjqQVKkVBBHUH&#xA;FV2KuxV2KuxV2Kvgj8mvzl8x/lR5jn0rVYJ30J5zHrGjyArLBKp4tLErU4yrT4l6MNjvQhV90aFr&#xA;uka9pFrrGj3SXmm3iCS3uIzVWU/iCDsQdwdjviqPxV2KuxV2KuxVQvrGzv7OexvoEubO5Rori3lU&#xA;Ojo4oysp2IIxV8Rfn9+QOofl9qB8w+XhLN5UmlDRyKSZbCUn4Y5G68K/3cn+xbehZV69/wA45/8A&#xA;ORkfmaO38o+brgJ5jQCPTtRkIC3qgbI57Tj/AIf/AFuqr6GxV2KuxV2KuxV2KsB/OD8n9A/MnQDZ&#xA;3gFrq9qGbS9UVavC5/Zb+aJv2l+kb4q+LdK1X8w/yT/MN1ZDaanaEJd2jkm2vLYmvanON6VVhuD4&#xA;EYq+4/yz/Mzy5+YXlyPWdGk4utEv7ByPWtpqVKOB1B/Zbow+kBVluKuxV2KuxV2KuxV8o/8AOSH/&#xA;ADjf6H1rzr5Ktf3PxTazo0K/Y7tcW6j9nu6Dp1G1QFUi/wCcc/8AnIyTyzJb+UfN1wX8uORHp+oS&#xA;ElrJidkc94D/AMJ/q9FX2THJHLGskbB43AZHUgqVIqCCOoOKrsVdirsVdirxT/nIL/nH2z8+2b67&#xA;oSJbeb7ZPZEvUQbRSnoJANkc/wCq21Cqr5z/ACa/OXzH+VHmOfStVgnfQnnMesaPICssEqni0sSt&#xA;TjKtPiXow2O9CFX3RoWu6Rr2kWusaPdJeabeIJLe4jNVZT+IIOxB3B2O+Ko/FXYq7FXYq7FVC+sb&#xA;O/s57G+gS5s7lGiuLeVQ6OjijKynYgjFXxF+f35A6h+X2oHzD5eEs3lSaUNHIpJlsJSfhjkbrwr/&#xA;AHcn+xbehZV69/zjn/zkZH5mjt/KPm64CeY0Aj07UZCAt6oGyOe04/4f/W6qvobFXYq7FXYq7FXY&#xA;qwH84Pyf0D8ydANneAWur2oZtL1RVq8Ln9lv5om/aX6Rvir4t0rVfzD/ACT/ADDdWQ2mp2hCXdo5&#xA;Jtry2Jr2pzjelVYbg+BGKvuP8s/zM8ufmF5cj1nRpOLrRL+wcj1raalSjgdQf2W6MPpAVZbirsVd&#xA;irsVdirsVfKP/OSH/ON/ofWvOvkq1/c/FNrOjQr9ju1xbqP2e7oOnUbVAVSL/nHP/nIyTyzJb+Uf&#xA;N1wX8uORHp+oSElrJidkc94D/wAJ/q9FX2THJHLGskbB43AZHUgqVIqCCOoOKrsVdirsVdirxT/n&#xA;IL/nH2z8+2b67oSJbeb7ZPZEvUQbRSnoJANkc/6rbUKqvnP8mvzl8x/lR5jn0rVYJ30J5zHrGjyA&#xA;rLBKp4tLErU4yrT4l6MNjvQhV90aFruka9pFrrGj3SXmm3iCS3uIzVWU/iCDsQdwdjviqPxV2Kux&#xA;V2KuxVQvrGzv7OexvoEubO5Rori3lUOjo4oysp2IIxV8Rfn9+QOofl9qB8w+XhLN5UmlDRyKSZbC&#xA;Un4Y5G68K/3cn+xbehZV69/zjn/zkZH5mjt/KPm64CeY0Aj07UZCAt6oGyOe04/4f/W6qvobFXYq&#xA;7FXYq7FXYqwH84Pyf0D8ydANneAWur2oZtL1RVq8Ln9lv5om/aX6Rvir4t0rVfzD/JP8w3VkNpqd&#xA;oQl3aOSba8tia9qc43pVWG4PgRir7j/LP8zPLn5heXI9Z0aTi60S/sHI9a2mpUo4HUH9lujD6QFW&#xA;W4q7FXYq7FXYq7FXyj/zkh/zjf6H1rzr5Ktf3PxTazo0K/Y7tcW6j9nu6Dp1G1QFUi/5xz/5yMk8&#xA;syW/lHzdcF/LjkR6fqEhJayYnZHPeA/8J/q9FX2THJHLGskbB43AZHUgqVIqCCOoOKrsVdirsVdi&#xA;rxT/AJyC/wCcfbPz7ZvruhIlt5vtk9kS9RBtFKegkA2Rz/qttQqq+c/ya/OXzH+VHmOfStVgnfQn&#xA;nMesaPICssEqni0sStTjKtPiXow2O9CFX3RoWu6Rr2kWusaPdJeabeIJLe4jNVZT+IIOxB3B2O+K&#xA;o/FXYq7FXYq7FVC+sbO/s57G+gS5s7lGiuLeVQ6OjijKynYgjFXxF+f35A6h+X2oHzD5eEs3lSaU&#xA;NHIpJlsJSfhjkbrwr/dyf7Ft6FlXr3/OOf8AzkZH5mjt/KPm64CeY0Aj07UZCAt6oGyOe04/4f8A&#xA;1uqr6GxV2KuxV2KuxV2KsB/OD8n9A/MnQDZ3gFrq9qGbS9UVavC5/Zb+aJv2l+kb4q+LdK1X8w/y&#xA;T/MN1ZDaanaEJd2jkm2vLYmvanON6VVhuD4EYq+4/wAs/wAzPLn5heXI9Z0aTi60S/sHI9a2mpUo&#xA;4HUH9lujD6QFWW4q7FXYq7FXYq7FXyj/AM5If843+h9a86+SrX9z8U2s6NCv2O7XFuo/Z7ug6dRt&#xA;UBVIv+cc/wDnIyTyzJb+UfN1wX8uORHp+oSElrJidkc94D/wn+r0VfZMckcsayRsHjcBkdSCpUio&#xA;II6g4quxV2KuxV2KvFP+cgv+cfbPz7ZvruhIlt5vtk9kS9RBtFKegkA2Rz/qttQqq+c/ya/OXzH+&#xA;VHmOfStVgnfQnnMesaPICssEqni0sStTjKtPiXow2O9CFX3RoWu6Rr2kWusaPdJeabeIJLe4jNVZ&#xA;T+IIOxB3B2O+Ko/FXYq7FXYq7FVC+sbO/s57G+gS5s7lGiuLeVQ6OjijKynYgjFXxF+f35A6h+X2&#xA;oHzD5eEs3lSaUNHIpJlsJSfhjkbrwr/dyf7Ft6FlXr3/ADjn/wA5GR+Zo7fyj5uuAnmNAI9O1GQg&#xA;LeqBsjntOP8Ah/8AW6qvobFXYq7FXYq7FXYqwH84Pyf0D8ydANneAWur2oZtL1RVq8Ln9lv5om/a&#xA;X6Rvir4t0rVfzD/JP8w3VkNpqdoQl3aOSba8tia9qc43pVWG4PgRir7j/LP8zPLn5heXI9Z0aTi6&#xA;0S/sHI9a2mpUo4HUH9lujD6QFWW4q7FXYq7FXYq7FXyj/wA5If8AON/ofWvOvkq1/c/FNrOjQr9j&#xA;u1xbqP2e7oOnUbVAVSL/AJxz/wCcjJPLMlv5R83XBfy45Een6hISWsmJ2Rz3gP8Awn+r0VfZMckc&#xA;sayRsHjcBkdSCpUioII6g4quxV2KuxV2KvFP+cgv+cfbPz7ZvruhIlt5vtk9kS9RBtFKegkA2Rz/&#xA;AKrbUKqvnP8AJr85fMf5UeY59K1WCd9Cecx6xo8gKywSqeLSxK1OMq0+JejDY70IVfdGha7pGvaR&#xA;a6xo90l5pt4gkt7iM1VlP4gg7EHcHY74qj8VdirsVdirsVUL6xs7+znsb6BLmzuUaK4t5VDo6OKM&#xA;rKdiCMVfEX5/fkDqH5fagfMPl4SzeVJpQ0cikmWwlJ+GORuvCv8Adyf7Ft6FlXr3/OOf/ORkfmaO&#xA;38o+brgJ5jQCPTtRkIC3qgbI57Tj/h/9bqq+hsVdirsVdirsVdirAfzg/J/QPzJ0A2d4Ba6vahm0&#xA;vVFWrwuf2W/mib9pfpG+Kvi3StV/MP8AJP8AMN1ZDaanaEJd2jkm2vLYmvanON6VVhuD4EYq+4/y&#xA;z/Mzy5+YXlyPWdGk4utEv7ByPWtpqVKOB1B/Zbow+kBVluKuxV2KuxV2KuxV8pf85H/843eibnzp&#xA;5Ktf3JrLrOjRCnDu1xbqP2e7oOnUbVoqkf8Azjt/zkYfLElv5Q813Bk8uMRHp+pSEk2bE7I9d/q/&#xA;h/J/q7Kq+ycVdirsVdirsVeKf85Bf84+2fn2zfXdCRLbzfbJ7Il6iDaKU9BIBsjn/VbahVV85/k1&#xA;+cvmP8qPMc+larBO+hPOY9Y0eQFZYJVPFpYlanGVafEvRhsd6EKvujQtd0jXtItdY0e6S8028QSW&#xA;9xGaqyn8QQdiDuDsd8VR+KuxV2KuxV2KqF9Y2d/Zz2N9AlzZ3KNFcW8qh0dHFGVlOxBGKviL8/vy&#xA;B1D8vtQPmHy8JZvKk0oaORSTLYSk/DHI3XhX+7k/2Lb0LKvXv+cc/wDnIyPzNHb+UfN1wE8xoBHp&#xA;2oyEBb1QNkc9px/w/wDrdVX0NirsVdirsVdirsVYD+cH5P6B+ZOgGzvALXV7UM2l6oq1eFz+y380&#xA;TftL9I3xV8W6Vqv5h/kn+YbqyG01O0IS7tHJNteWxNe1Ocb0qrDcHwIxV9x/ln+Znlz8wvLkes6N&#xA;JxdaJf2DketbTUqUcDqD+y3Rh9ICrLcVdirsVdirsVdir5R/5yQ/5xv9D61518lWv7n4ptZ0aFfs&#xA;d2uLdR+z3dB06jaoCr6uxV2KuxV2KuxV2KvFP+cgv+cfbPz7ZvruhIlt5vtk9kS9RBtFKegkA2Rz&#xA;/qttQqq+c/ya/OXzH+VHmOfStVgnfQnnMesaPICssEqni0sStTjKtPiXow2O9CFX3RoWu6Rr2kWu&#xA;saPdJeabeIJLe4jNVZT+IIOxB3B2O+Ko/FXYq7FXYq7FVC+sbO/s57G+gS5s7lGiuLeVQ6OjijKy&#xA;nYgjFXxF+f35A6h+X2oHzD5eEs3lSaUNHIpJlsJSfhjkbrwr/dyf7Ft6FlXr3/OOf/ORkfmaO38o&#xA;+brgJ5jQCPTtRkIC3qgbI57Tj/h/9bqq+hsVdirsVdirsVdirAfzg/J/QPzJ0A2d4Ba6vahm0vVF&#xA;Wrwuf2W/mib9pfpG+Kvi3StV/MP8k/zDdWQ2mp2hCXdo5Jtry2Jr2pzjelVYbg+BGKvuP8s/zM8u&#xA;fmF5cj1nRpOLrRL+wcj1raalSjgdQf2W6MPpAVZbirsVdirsVdirsVeWfkZ+eekfmRpH1e44Wfmm&#xA;zQHUNPBosijb14K7mMnqOqHY7UJVep4q7FXYq7FXYq7FXin/ADkF/wA4+2fn2zfXdCRLbzfbJ7Il&#xA;6iDaKU9BIBsjn/VbahVV85/k1+cvmP8AKjzHPpWqwTvoTzmPWNHkBWWCVTxaWJWpxlWnxL0YbHeh&#xA;Cr7o0LXdI17SLXWNHukvNNvEElvcRmqsp/EEHYg7g7HfFUfirsVdirsVdiqhfWNnf2c9jfQJc2dy&#xA;jRXFvKodHRxRlZTsQRir4i/P78gdQ/L7UD5h8vCWbypNKGjkUky2EpPwxyN14V/u5P8AYtvQsq9e&#xA;/wCcc/8AnIyPzNHb+UfN1wE8xoBHp2oyEBb1QNkc9px/w/8ArdVX0NirsVdirsVdirsVYD+cH5P6&#xA;B+ZOgGzvALXV7UM2l6oq1eFz+y380TftL9I3xV8W6Vqv5h/kn+YbqyG01O0IS7tHJNteWxNe1Ocb&#xA;0qrDcHwIxV9x/ln+Znlz8wvLkes6NJxdaJf2DketbTUqUcDqD+y3Rh9ICrLcVdirsVdirsVfnr59&#xA;8heePyZ88W80NxJEYpDPoeuQDikyL123AYA8ZI2r17qQSq+t/wAjPzz0j8yNI+r3HCz802aA6hp4&#xA;NFkUbevBXcxk9R1Q7HahKr1PFXYq7FXYq7FXYq8U/wCcgv8AnH2z8+2b67oSJbeb7ZPZEvUQbRSn&#xA;oJANkc/6rbUKqvnP8mvzl8x/lR5jn0rVYJ30J5zHrGjyArLBKp4tLErU4yrT4l6MNjvQhV90aFru&#xA;ka9pFrrGj3SXmm3iCS3uIzVWU/iCDsQdwdjviqPxV2KuxV2KuxVQvrGzv7OexvoEubO5Rori3lUO&#xA;jo4oysp2IIxV8Rfn9+QOofl9qB8w+XhLN5UmlDRyKSZbCUn4Y5G68K/3cn+xbehZV69/zjn/AM5G&#xA;R+Zo7fyj5uuAnmNAI9O1GQgLeqBsjntOP+H/ANbqq+hsVdirsVdirsVdirAfzg/J/QPzJ0A2d4Ba&#xA;6vahm0vVFWrwuf2W/mib9pfpG+Kvi7SNT/MT8lfzEdPTNpqdoeF3aOSba8tia7nYPE4FVcbqfAjF&#xA;X3H+Wv5l+W/zB8uprGiy/EpCX1k5HrW8tPsOPA9Vbow+kBVlmKuxV2KuxVIfO/kjy9508vXGg69b&#xA;ieznFUcUEkMgB4yxNQ8XWux+g1BIxV8J+ffIXnj8mfPFvNDcSRGKQz6HrkA4pMi9dtwGAPGSNq9e&#xA;6kEqvrf8jPzz0j8yNI+r3HCz802aA6hp4NFkUbevBXcxk9R1Q7HahKr1PFXYq7FXYq7FXYq8U/5y&#xA;C/5x9s/Ptm+u6EiW3m+2T2RL1EG0Up6CQDZHP+q21Cqr5z/Jr85fMf5UeY59K1WCd9Cecx6xo8gK&#xA;ywSqeLSxK1OMq0+JejDY70IVfdGha7pGvaRa6xo90l5pt4gkt7iM1VlP4gg7EHcHY74qj8VdirsV&#xA;dirsVUL6xs7+znsb6BLmzuUaK4t5VDo6OKMrKdiCMVfEX5/fkDqH5fagfMPl4SzeVJpQ0cikmWwl&#xA;J+GORuvCv93J/sW3oWVevf8AOOf/ADkZH5mjt/KPm64CeY0Aj07UZCAt6oGyOe04/wCH/wBbqq+h&#xA;sVdirsVdirsVdirAfzg/KDQfzI8vmzu6Wur2ysdL1RRV4nO/B/54mIHJfpG+Kvi3StV/MP8AJP8A&#xA;MN1ZDaanaEJd2jkm2vLYmvanON6VVhuD4EYq+4/yz/Mzy5+YXlyPWdGk4utEv7ByPWtpqVKOB1B/&#xA;Zbow+kBVluKuxV2KuxVIfO/kjy9508vXGg69bieznFUcUEkMgB4yxNQ8XWux+g1BIxV8J+ffIXnj&#xA;8mfPFvNDcSRGKQz6HrkA4pMi9dtwGAPGSNq9e6kEqvrf8jPzz0j8yNI+r3HCz802aA6hp4NFkUbe&#xA;vBXcxk9R1Q7HahKr1PFXYq7FXYq7FXYq8U/5yC/5x9s/Ptm+u6EiW3m+2T2RL1EG0Up6CQDZHP8A&#xA;qttQqq+c/wAmvzl8x/lR5jn0rVYJ30J5zHrGjyArLBKp4tLErU4yrT4l6MNjvQhV90aFruka9pFr&#xA;rGj3SXmm3iCS3uIzVWU/iCDsQdwdjviqPxV2KuxV2KuxVQvrGzv7OexvoEubO5Rori3lUOjo4oys&#xA;p2IIxV8Rfn9+QOofl9qB8w+XhLN5UmlDRyKSZbCUn4Y5G68K/wB3J/sW3oWVevf845/85GR+Zo7f&#xA;yj5uuAnmNAI9O1GQgLeqBsjntOP+H/1uqr6GxV2KuxV2KuxV2KsB/OD8n9A/MnQDZ3gFrq9qGbS9&#xA;UVavC5/Zb+aJv2l+kb4q+LdK1X8w/wAk/wAw3VkNpqdoQl3aOSba8tia9qc43pVWG4PgRir7j/LP&#xA;8zPLn5heXI9Z0aTi60S/sHI9a2mpUo4HUH9lujD6QFWW4q7FXYq7FUh87+SPL3nTy9caDr1uJ7Oc&#xA;VRxQSQyAHjLE1Dxda7H6DUEjFXwn598heePyZ88W80NxJEYpDPoeuQDikyL123AYA8ZI2r17qQSq&#xA;+t/yM/PPSPzI0j6vccLPzTZoDqGng0WRRt68FdzGT1HVDsdqEqvU8VdirsVdirsVdirxT/nIL/nH&#xA;2z8+2b67oSJbeb7ZPZEvUQbRSnoJANkc/wCq21Cqr5z/ACa/OXzH+VHmOfStVgnfQnnMesaPICss&#xA;Eqni0sStTjKtPiXow2O9CFX3RoWu6Rr2kWusaPdJeabeIJLe4jNVZT+IIOxB3B2O+Ko/FXYq7FXY&#xA;q7FVC+sbO/s57G+gS5s7lGiuLeVQ6OjijKynYgjFXxF+f35A6h+X2oHzD5eEs3lSaUNHIpJlsJSf&#xA;hjkbrwr/AHcn+xbehZV69/zjn/zkZH5mjt/KPm64CeY0Aj07UZCAt6oGyOe04/4f/W6qvobFXYq7&#xA;FXYq7FXYqwH84Pyf0D8ydANneAWur2oZtL1RVq8Ln9lv5om/aX6Rvir4t0rVfzD/ACT/ADDdWQ2m&#xA;p2hCXdo5Jtry2Jr2pzjelVYbg+BGKvuP8s/zM8ufmF5cj1nRpOLrRL+wcj1raalSjgdQf2W6MPpA&#xA;VZbirsVdirsVSHzv5I8vedPL1xoOvW4ns5xVHFBJDIAeMsTUPF1rsfoNQSMVfCfn3yF54/Jnzxbz&#xA;Q3EkRikM+h65AOKTIvXbcBgDxkjavXupBKr63/Iz889I/MjSPq9xws/NNmgOoaeDRZFG3rwV3MZP&#xA;UdUOx2oSq9TxV2KuxV2KuxV2KvFP+cgv+cfbPz7ZvruhIlt5vtk9kS9RBtFKegkA2Rz/AKrbUKqv&#xA;nP8AJr85fMf5UeY59K1WCd9Cecx6xo8gKywSqeLSxK1OMq0+JejDY70IVfdGha7pGvaRa6xo90l5&#xA;pt4gkt7iM1VlP4gg7EHcHY74qj8VdirsVdirsVUL6xs7+znsb6BLmzuUaK4t5VDo6OKMrKdiCMVf&#xA;EX5/fkDqH5fagfMPl4SzeVJpQ0cikmWwlJ+GORuvCv8Adyf7Ft6FlXr/APzjn/zkWnmeO38o+bZw&#xA;nmNAE0/UHNBeqo2Rz2nA/wCD/wBbqq+hcVdirsVdirsVdirAfzg/J/QPzJ0A2d4Ba6vahm0vVFWr&#xA;wuf2W/mib9pfpG+Kvi3StV/MP8k/zDdWQ2mp2hCXdo5Jtry2Jr2pzjelVYbg+BGKvuP8s/zM8ufm&#xA;F5cj1nRpOLrRL+wcj1raalSjgdQf2W6MPpAVf//Z</xmpGImg:image>
               </rdf:li>
            </rdf:Alt>
         </xmp:Thumbnails>
      </rdf:Description>
      <rdf:Description rdf:about=""
            xmlns:xmpMM="http://ns.adobe.com/xap/1.0/mm/"
            xmlns:stRef="http://ns.adobe.com/xap/1.0/sType/ResourceRef#"
            xmlns:stEvt="http://ns.adobe.com/xap/1.0/sType/ResourceEvent#">
         <xmpMM:RenditionClass>proof:pdf</xmpMM:RenditionClass>
         <xmpMM:OriginalDocumentID>uuid:65E6390686CF11DBA6E2D887CEACB407</xmpMM:OriginalDocumentID>
         <xmpMM:DocumentID>xmp.did:27BD07C3BB30E8119563B273A87CECCC</xmpMM:DocumentID>
         <xmpMM:InstanceID>xmp.iid:27BD07C3BB30E8119563B273A87CECCC</xmpMM:InstanceID>
         <xmpMM:DerivedFrom rdf:parseType="Resource">
            <stRef:instanceID>xmp.iid:26BD07C3BB30E8119563B273A87CECCC</stRef:instanceID>
            <stRef:documentID>xmp.did:26BD07C3BB30E8119563B273A87CECCC</stRef:documentID>
            <stRef:originalDocumentID>uuid:65E6390686CF11DBA6E2D887CEACB407</stRef:originalDocumentID>
            <stRef:renditionClass>proof:pdf</stRef:renditionClass>
         </xmpMM:DerivedFrom>
         <xmpMM:History>
            <rdf:Seq>
               <rdf:li rdf:parseType="Resource">
                  <stEvt:action>saved</stEvt:action>
                  <stEvt:instanceID>xmp.iid:1FBD07C3BB30E8119563B273A87CECCC</stEvt:instanceID>
                  <stEvt:when>2018-03-26T08:06:02+02:00</stEvt:when>
                  <stEvt:softwareAgent>Adobe Illustrator CS6 (Windows)</stEvt:softwareAgent>
                  <stEvt:changed>/</stEvt:changed>
               </rdf:li>
               <rdf:li rdf:parseType="Resource">
                  <stEvt:action>saved</stEvt:action>
                  <stEvt:instanceID>xmp.iid:27BD07C3BB30E8119563B273A87CECCC</stEvt:instanceID>
                  <stEvt:when>2018-03-26T08:20:28+02:00</stEvt:when>
                  <stEvt:softwareAgent>Adobe Illustrator CS6 (Windows)</stEvt:softwareAgent>
                  <stEvt:changed>/</stEvt:changed>
               </rdf:li>
            </rdf:Seq>
         </xmpMM:History>
      </rdf:Description>
      <rdf:Description rdf:about=""
            xmlns:illustrator="http://ns.adobe.com/illustrator/1.0/">
         <illustrator:StartupProfile>Web</illustrator:StartupProfile>
      </rdf:Description>
      <rdf:Description rdf:about=""
            xmlns:xmpTPg="http://ns.adobe.com/xap/1.0/t/pg/"
            xmlns:stDim="http://ns.adobe.com/xap/1.0/sType/Dimensions#"
            xmlns:xmpG="http://ns.adobe.com/xap/1.0/g/">
         <xmpTPg:NPages>1</xmpTPg:NPages>
         <xmpTPg:HasVisibleTransparency>False</xmpTPg:HasVisibleTransparency>
         <xmpTPg:HasVisibleOverprint>False</xmpTPg:HasVisibleOverprint>
         <xmpTPg:MaxPageSize rdf:parseType="Resource">
            <stDim:w>300.000000</stDim:w>
            <stDim:h>300.000000</stDim:h>
            <stDim:unit>Pixels</stDim:unit>
         </xmpTPg:MaxPageSize>
         <xmpTPg:PlateNames>
            <rdf:Seq>
               <rdf:li>Cyan</rdf:li>
               <rdf:li>Magenta</rdf:li>
               <rdf:li>Yellow</rdf:li>
               <rdf:li>Black</rdf:li>
            </rdf:Seq>
         </xmpTPg:PlateNames>
         <xmpTPg:SwatchGroups>
            <rdf:Seq>
               <rdf:li rdf:parseType="Resource">
                  <xmpG:groupName>Default Swatch Group</xmpG:groupName>
                  <xmpG:groupType>0</xmpG:groupType>
               </rdf:li>
            </rdf:Seq>
         </xmpTPg:SwatchGroups>
      </rdf:Description>
      <rdf:Description rdf:about=""
            xmlns:pdf="http://ns.adobe.com/pdf/1.3/">
         <pdf:Producer>Adobe PDF library 10.01</pdf:Producer>
      </rdf:Description>
   </rdf:RDF>
</x:xmpmeta>
                                                                                                    
                                                                                                    
                                                                                                    
                                                                                                    
                                                                                                    
                                                                                                    
                                                                                                    
                                                                                                    
                                                                                                    
                                                                                                    
                                                                                                    
                                                                                                    
                                                                                                    
                                                                                                    
                                                                                                    
                                                                                                    
                                                                                                    
                                                                                                    
                                                                                                    
                                                                                                    
                           
<?xpacket end="w"?>
	</metadata>
<pattern  x="0.5" y="300.5" width="285" height="3524" patternUnits="userSpaceOnUse" id="New_Pattern_7" viewBox="0 -3524 285 3524" overflow="visible">
	<g>
		<polygon fill="none" points="0,-3524 285,-3524 285,0 0,0 		"/>
		<line fill="none" stroke="#000000" stroke-width="7" stroke-miterlimit="10" x1="256.5" y1="-3524" x2="256.5" y2="0"/>
		<line fill="none" stroke="#000000" stroke-width="7" stroke-miterlimit="10" x1="199.5" y1="-3524" x2="199.5" y2="0"/>
		<line fill="none" stroke="#000000" stroke-width="7" stroke-miterlimit="10" x1="142.5" y1="-3524" x2="142.5" y2="0"/>
		<line fill="none" stroke="#000000" stroke-width="7" stroke-miterlimit="10" x1="85.5" y1="-3524" x2="85.5" y2="0"/>
		<line fill="none" stroke="#000000" stroke-width="7" stroke-miterlimit="10" x1="28.5" y1="-3524" x2="28.5" y2="0"/>
	</g>
</pattern>
<pattern  id="SVGID_1_" xlink:href="#New_Pattern_7" patternTransform="matrix(0.7071 -0.7071 0.7071 0.7071 8284.9707 -6613.7349)">
</pattern>
<rect fill="url(#SVGID_1_)" width="300" height="300"/>
</svg>
