<?xml version="1.0" encoding="utf-8"?>
<!-- Generator: Adobe Illustrator 16.0.0, SVG Export Plug-In . SVG Version: 6.00 Build 0)  -->
<!DOCTYPE svg PUBLIC "-//W3C//DTD SVG 1.1//EN" "http://www.w3.org/Graphics/SVG/1.1/DTD/svg11.dtd">
<svg version="1.1" id="Layer_1" xmlns="http://www.w3.org/2000/svg" xmlns:xlink="http://www.w3.org/1999/xlink" x="0px" y="0px"
	 width="300px" height="300px" viewBox="0 0 300 300" enable-background="new 0 0 300 300" xml:space="preserve">
<pattern  x="0.5" y="300.5" width="30" height="30" patternUnits="userSpaceOnUse" id="dots2" viewBox="0 -30 30 30" overflow="visible">
	<g>
		<polygon fill="none" points="0,0 30,0 30,-30 0,-30 		"/>
		<g>
			<polygon fill="none" points="0,0 30,0 30,-30 0,-30 			"/>
			<path d="M20-15c0-2.762-2.238-5-5-5c-2.761,0-5,2.238-5,5c0,2.761,2.239,5,5,5C17.762-10,20-12.239,20-15z"/>
		</g>
	</g>
</pattern>
<pattern  id="SVGID_1_" xlink:href="#dots2" patternTransform="matrix(1 0 0 -1 -120.5 -16203.5801)">
</pattern>
<rect fill="url(#SVGID_1_)" width="300" height="300"/>
</svg>
